PHEindicatormethods DSR function
…
df <- left_join(pops,deaths, by = c("indicator","period","region","ageband")) %>%
  group_by(indicator, period, region)

Check the data meets the function requirements

It is important that your data meets the following criteria in order for the phe_dsr function to work so it is wise to check this before we move on.

1. Each grouping set within your data must contain an equal number of records.

The phe_dsr function has built in error handling to check this requirement, or you can check your data manually using code like this:

# check equal number of records in each grouping set - eyeball check
summarise(df,n=n())
#> # A tibble: 40 x 4
#> # Groups:   indicator, period [20]
#>    indicator period region     n
#>    <fct>      <int> <fct>  <int>
#>  1 Ind1        2012 Area1     19
#>  2 Ind1        2012 Area2     19
#>  3 Ind1        2013 Area1     19
#>  4 Ind1        2013 Area2     19
#>  5 Ind1        2014 Area1     19
#>  6 Ind1        2014 Area2     19
#>  7 Ind1        2015 Area1     19
#>  8 Ind1        2015 Area2     19
#>  9 Ind1        2016 Area1     19
#> 10 Ind1        2016 Area2     19
#> # ... with 30 more rows
…
# the following statement shows that execution of the phe_dsr function on the deliberately-incorrectly sorted data frame produces different (and incorrect) results.
identical(right,wrong)
#> [1] FALSE

Now lets calculate some DSRs

Now were ready to calculate the DSRs using our correctly ordered df data frame.

By default the function will apply 95% confidence, a 100,000 multiplier and will output just 3 fields against each grouping set - the dsr, the lower confidence limit and the upper confidence limit:

phe_dsr(df, dths, pop)
#> # A tibble: 40 x 12
#> # Groups:   indicator, period [20]
#>    indicator period region total_count total_pop standardised_pop value lowercl
#>    <fct>      <int> <fct>        <int>     <int>            <dbl> <dbl>   <dbl>
#>  1 Ind1        2012 Area1         1707    286813             587.  587.    558.
#>  2 Ind1        2012 Area2         1616    275034             630.  630.    598.
#>  3 Ind1        2013 Area1         1961    299946             638.  638.    607.
#>  4 Ind1        2013 Area2         1988    284160             760.  760.    726.
#>  5 Ind1        2014 Area1         2007    278678             704.  704.    672.
#>  6 Ind1        2014 Area2         2224    306171             786.  786.    751.
#>  7 Ind1        2015 Area1         1915    297056             668.  668.    635.
#>  8 Ind1        2015 Area2         2042    283828             649.  649.    619.
#>  9 Ind1        2016 Area1         1920    286251             691.  691.    657.
#> 10 Ind1        2016 Area2         2355    279947             892.  892.    854.
#> # ... with 30 more rows, and 4 more variables: uppercl <dbl>, confidence <chr>,
#> #   statistic <chr>, method <chr>

Alternatively, we can add further arguments to specify:

the level of detail required in the output (type = standard will drop metadata fields)

the confidence level (confidence)

the multiplier (multiplier)

phe_dsr(df, dths, pop, type = "standard", confidence = 99.8, multiplier = 10000)
#> # A tibble: 40 x 8
#> # Groups:   indicator, period [20]
#>    indicator period region total_count total_pop value lowercl uppercl
#>    <fct>      <int> <fct>        <int>     <int> <dbl>   <dbl>   <dbl>
#>  1 Ind1        2012 Area1         1707    286813  58.7    54.1    63.6
#>  2 Ind1        2012 Area2         1616    275034  63.0    58.0    68.3
#>  3 Ind1        2013 Area1         1961    299946  63.8    59.0    68.8
#>  4 Ind1        2013 Area2         1988    284160  76.0    70.6    81.7
#>  5 Ind1        2014 Area1         2007    278678  70.4    65.4    75.7
#>  6 Ind1        2014 Area2         2224    306171  78.6    73.1    84.2
#>  7 Ind1        2015 Area1         1915    297056  66.8    61.7    72.1
#>  8 Ind1        2015 Area2         2042    283828  64.9    60.2    69.8
#>  9 Ind1        2016 Area1         1920    286251  69.1    63.9    74.5
#> 10 Ind1        2016 Area2         2355    279947  89.2    83.3    95.3
#> # ... with 30 more rows
…
1. Provide the custom standard population as a vector

In the example below, the 1976 European Standard Population (which has 18 age groups) is provided as a vector and then referenced in the function call. To ensure the function works we must also ensure that our data has been broken down into these same 18 age bands (for the purposes of this example Ive just combined the 85-90 and 90+ age band data into a single 85+ age band from the data.frame we used earlier).

The phe_dsr function can then be executed using a user-defined standard population:

esp1976 <- c(8000,  7000,   7000,   7000,   7000,   7000,   7000,   7000,   7000,   7000,   7000,   6000,   5000,   4000,   3000,   2000,   1000,   1000)

df18 <- df
df18$dths[df18$ageband == 85] <- df18$dths[df18$ageband == 85] + df18$dths[df18$ageband == 90]
df18$pop[df18$ageband == 85]  <- df18$pop[df18$ageband == 85] + df18$pop[df18$ageband == 90]
df18 <- filter(df18,ageband != 90)

phe_dsr(df18,dths,pop,stdpop = esp1976)
#> # A tibble: 40 x 12
#> # Groups:   indicator, period [20]
#>    indicator period region total_count total_pop standardised_pop value lowercl
#>    <fct>      <int> <fct>        <int>     <int>            <dbl> <dbl>   <dbl>
#>  1 Ind1        2012 Area1         1707    286813             610.  610.    578.
#>  2 Ind1        2012 Area2         1616    275034             663.  663.    628.
#>  3 Ind1        2013 Area1         1961    299946             620.  620.    589.
#>  4 Ind1        2013 Area2         1988    284160             803.  803.    764.
#>  5 Ind1        2014 Area1         2007    278678             705.  705.    672.
#>  6 Ind1        2014 Area2         2224    306171             760.  760.    725.
#>  7 Ind1        2015 Area1         1915    297056             683.  683.    648.
#>  8 Ind1        2015 Area2         2042    283828             658.  658.    625.
#>  9 Ind1        2016 Area1         1920    286251             692.  692.    657.
#> 10 Ind1        2016 Area2         2355    279947             903.  903.    863.
#> # ... with 30 more rows, and 4 more variables: uppercl <dbl>, confidence <chr>,
#> #   statistic <chr>, method <chr>

2. Append the standard populations to your data frame before executing the function

In the example below, the esp2013 standard population is appended to our data frame prior to calling the phe_dsr function. The field name can then be specified in the function call. If stdpop is specified as a field name we must also tell the function this by specifying stdpoptype = field as below:

df_with_stdpop <- df %>%
    mutate(spop = esp2013)
names(df_with_stdpop)
#> [1] "indicator" "period"    "region"    "ageband"   "pop"       "dths"     
#> [7] "spop"
phe_dsr(df_with_stdpop, dths, pop, stdpop = spop, stdpoptype = "field")
#> # A tibble: 40 x 12
#> # Groups:   indicator, period [20]
#>    indicator period region total_count total_pop standardised_pop value lowercl
#>    <fct>      <int> <fct>        <int>     <int>            <dbl> <dbl>   <dbl>
#>  1 Ind1        2012 Area1         1707    286813             587.  587.    558.
#>  2 Ind1        2012 Area2         1616    275034             630.  630.    598.
#>  3 Ind1        2013 Area1         1961    299946             638.  638.    607.
#>  4 Ind1        2013 Area2         1988    284160             760.  760.    726.
#>  5 Ind1        2014 Area1         2007    278678             704.  704.    672.
#>  6 Ind1        2014 Area2         2224    306171             786.  786.    751.
#>  7 Ind1        2015 Area1         1915    297056             668.  668.    635.
#>  8 Ind1        2015 Area2         2042    283828             649.  649.    619.
#>  9 Ind1        2016 Area1         1920    286251             691.  691.    657.
#> 10 Ind1        2016 Area2         2355    279947             892.  892.    854.
#> # ... with 30 more rows, and 4 more variables: uppercl <dbl>, confidence <chr>,
#> #   statistic <chr>, method <chr>
…
