Introduction to PHEindicatormethods
…
standard populations provided as a vector - the vector and the input data frame must both contain rows for the same standardisation categories, and both must be sorted, within each grouping set, by these standardisation categories in the same order

standard populations provided as a column within the input data frame - the standard populations can be appended to the input data frame by the user prior to execution of the function - if the data is grouped to generate multiple dsrs then the standard populations will need to be repeated and appended to the data rows for every grouping set.

OUTPUT: By default, the function outputs one row per grouping set containing the grouping variable values, the dsr, the lower 95% confidence limit, and the upper 95% confidence limit

OPTIONS: If standard populations are being provided as a column within the input data frame then the user must specify this using the stdpoptype argument as the function expects a vector by default. The function also accepts additional arguments to specify the standard populations, the level of confidence, the multiplier and the level of detail to be output.

Here are some example code chunks to demonstrate the phe_dsr function and the arguments that can optionally be specified

# calculate separate dsrs for each area, year and sex
df_std %>%
    group_by(area, year, sex) %>%
    phe_dsr(obs, pop)
#> # A tibble: 40 x 6
#> # Groups:   area, year [20]
#>    area   year sex    value lowercl uppercl
#>    <fct> <int> <fct>  <dbl>   <dbl>   <dbl>
#>  1 Area1  2006 Female  771.    736.    806.
#>  2 Area1  2006 Male    658.    626.    690.
#>  3 Area1  2007 Female  685.    652.    720.
#>  4 Area1  2007 Male    830.    792.    870.
#>  5 Area1  2008 Female  704.    668.    741.
#>  6 Area1  2008 Male    703.    670.    738.
#>  7 Area1  2009 Female  585.    556.    616.
#>  8 Area1  2009 Male    608.    577.    639.
#>  9 Area1  2010 Female  912.    874.    952.
#> 10 Area1  2010 Male    731.    697.    766.
#> # ... with 30 more rows

# calculate same specifying standard population in vector form
df_std %>%
    group_by(area, year, sex) %>%
    phe_dsr(obs, pop, stdpop = esp2013)
#> # A tibble: 40 x 6
#> # Groups:   area, year [20]
#>    area   year sex    value lowercl uppercl
#>    <fct> <int> <fct>  <dbl>   <dbl>   <dbl>
#>  1 Area1  2006 Female  771.    736.    806.
#>  2 Area1  2006 Male    658.    626.    690.
#>  3 Area1  2007 Female  685.    652.    720.
#>  4 Area1  2007 Male    830.    792.    870.
#>  5 Area1  2008 Female  704.    668.    741.
#>  6 Area1  2008 Male    703.    670.    738.
#>  7 Area1  2009 Female  585.    556.    616.
#>  8 Area1  2009 Male    608.    577.    639.
#>  9 Area1  2010 Female  912.    874.    952.
#> 10 Area1  2010 Male    731.    697.    766.
#> # ... with 30 more rows

# calculate the same dsrs by appending the standard populations to the data frame
df_std %>%
    mutate(refpop = rep(esp2013,40)) %>%
    group_by(area, year, sex) %>%
    phe_dsr(obs,pop, stdpop=refpop, stdpoptype="field")
#> # A tibble: 40 x 6
#> # Groups:   area, year [20]
#>    area   year sex    value lowercl uppercl
#>    <fct> <int> <fct>  <dbl>   <dbl>   <dbl>
#>  1 Area1  2006 Female  771.    736.    806.
#>  2 Area1  2006 Male    658.    626.    690.
#>  3 Area1  2007 Female  685.    652.    720.
#>  4 Area1  2007 Male    830.    792.    870.
#>  5 Area1  2008 Female  704.    668.    741.
#>  6 Area1  2008 Male    703.    670.    738.
#>  7 Area1  2009 Female  585.    556.    616.
#>  8 Area1  2009 Male    608.    577.    639.
#>  9 Area1  2010 Female  912.    874.    952.
#> 10 Area1  2010 Male    731.    697.    766.
#> # ... with 30 more rows
…
Here are some example code chunks to demonstrate the phe_smr function and the arguments that can optionally be specified

# calculate separate smrs for each area, year and sex
df_std %>%
    group_by(area, year, sex) %>%
    phe_smr(obs, pop, df_ref$obs, df_ref$pop)
#> # A tibble: 40 x 6
#> # Groups:   area, year [20]
#>    area   year sex    value lowercl uppercl
#>    <fct> <int> <fct>  <dbl>   <dbl>   <dbl>
#>  1 Area1  2006 Female 1.11    1.07    1.16 
#>  2 Area1  2006 Male   0.960   0.916   1.01 
#>  3 Area1  2007 Female 1.06    1.01    1.11 
#>  4 Area1  2007 Male   1.12    1.07    1.17 
#>  5 Area1  2008 Female 0.946   0.902   0.992
#>  6 Area1  2008 Male   0.941   0.898   0.984
#>  7 Area1  2009 Female 0.916   0.874   0.959
#>  8 Area1  2009 Male   0.958   0.914   1.00 
#>  9 Area1  2010 Female 1.33    1.28    1.39 
#> 10 Area1  2010 Male   1.06    1.01    1.10 
#> # ... with 30 more rows

# calculate the same smrs by appending the reference data to the data frame
df_std %>%
    mutate(refobs = rep(df_ref$obs,40),
           refpop = rep(df_ref$pop,40)) %>%
    group_by(area, year, sex) %>%
    phe_smr(obs, pop, refobs, refpop, refpoptype="field")
#> # A tibble: 40 x 6
#> # Groups:   area, year [20]
#>    area   year sex    value lowercl uppercl
#>    <fct> <int> <fct>  <dbl>   <dbl>   <dbl>
#>  1 Area1  2006 Female 1.11    1.07    1.16 
#>  2 Area1  2006 Male   0.960   0.916   1.01 
#>  3 Area1  2007 Female 1.06    1.01    1.11 
#>  4 Area1  2007 Male   1.12    1.07    1.17 
#>  5 Area1  2008 Female 0.946   0.902   0.992
#>  6 Area1  2008 Male   0.941   0.898   0.984
#>  7 Area1  2009 Female 0.916   0.874   0.959
#>  8 Area1  2009 Male   0.958   0.914   1.00 
#>  9 Area1  2010 Female 1.33    1.28    1.39 
#> 10 Area1  2010 Male   1.06    1.01    1.10 
#> # ... with 30 more rows
…
The phe_isr function works exactly the same way but instead of expressing the result as a ratio of the observed and expected rates the result is expressed as a rate and the reference rate is also provided. Here are some examples:

# calculate separate isrs for each area, year and sex
df_std %>%
    group_by(area, year, sex) %>%
    phe_isr(obs, pop, df_ref$obs, df_ref$pop)
#> # A tibble: 40 x 6
#> # Groups:   area, year [20]
#>    area   year sex    value lowercl uppercl
#>    <fct> <int> <fct>  <dbl>   <dbl>   <dbl>
#>  1 Area1  2006 Female  732.    701.    763.
#>  2 Area1  2006 Male    631.    602.    661.
#>  3 Area1  2007 Female  697.    666.    728.
#>  4 Area1  2007 Male    734.    701.    767.
#>  5 Area1  2008 Female  621.    592.    651.
#>  6 Area1  2008 Male    618.    590.    646.
#>  7 Area1  2009 Female  601.    574.    629.
#>  8 Area1  2009 Male    629.    600.    658.
#>  9 Area1  2010 Female  874.    840.    910.
#> 10 Area1  2010 Male    695.    665.    725.
#> # ... with 30 more rows

# calculate the same isrs by appending the reference data to the data frame
df_std %>%
    mutate(refobs = rep(df_ref$obs,40),
           refpop = rep(df_ref$pop,40)) %>%
    group_by(area, year, sex) %>%
    phe_isr(obs, pop, refobs, refpop, refpoptype="field")
#> # A tibble: 40 x 6
#> # Groups:   area, year [20]
#>    area   year sex    value lowercl uppercl
#>    <fct> <int> <fct>  <dbl>   <dbl>   <dbl>
#>  1 Area1  2006 Female  732.    701.    763.
#>  2 Area1  2006 Male    631.    602.    661.
#>  3 Area1  2007 Female  697.    666.    728.
#>  4 Area1  2007 Male    734.    701.    767.
#>  5 Area1  2008 Female  621.    592.    651.
#>  6 Area1  2008 Male    618.    590.    646.
#>  7 Area1  2009 Female  601.    574.    629.
#>  8 Area1  2009 Male    629.    600.    658.
#>  9 Area1  2010 Female  874.    840.    910.
#> 10 Area1  2010 Male    695.    665.    725.
#> # ... with 30 more rows
…
