Introduction to PHEindicatormethods
…
Here are some example code chunks to demonstrate the calculate_dsr
function and the arguments that can optionally be specified

# Append the standard populations to the data frame
# calculate separate dsrs for each area, year and sex
df_std %>%
    mutate(refpop = rep(esp2013, 40)) %>%
    group_by(area, year, sex) %>%
    calculate_dsr(obs,pop, stdpop = refpop)
#> # A tibble: 40 × 11
#>    area   year sex    total_count total_pop value lowercl uppercl confidence
#>    <chr> <int> <chr>        <int>     <int> <dbl>   <dbl>   <dbl> <chr>     
#>  1 Area1  2006 Female        1976    285485  712.    679.    746. 95%       
#>  2 Area1  2006 Male          2067    292506  713.    680.    748. 95%       
#>  3 Area1  2007 Female        2027    304681  670.    638.    702. 95%       
#>  4 Area1  2007 Male          2110    292002  761.    726.    796. 95%       
#>  5 Area1  2008 Female        1872    288328  706.    673.    740. 95%       
#>  6 Area1  2008 Male          2172    284452  807.    771.    844. 95%       
#>  7 Area1  2009 Female        1765    272181  651.    619.    684. 95%       
#>  8 Area1  2009 Male          1935    280477  760.    725.    797. 95%       
#>  9 Area1  2010 Female        2419    293242  924.    884.    965. 95%       
#> 10 Area1  2010 Male          2137    266901  878.    839.    918. 95%       
#> # ℹ 30 more rows
#> # ℹ 2 more variables: statistic <chr>, method <chr>

# Append the standard populations to the data frame
# calculate separate dsrs for each area, year and sex and drop metadata fields from output
df_std %>%
    mutate(refpop = rep(esp2013, 40)) %>%
    group_by(area, year, sex) %>%
    calculate_dsr(obs,pop, stdpop = refpop, type = "standard")
#> # A tibble: 40 × 8
#>    area   year sex    total_count total_pop value lowercl uppercl
#>    <chr> <int> <chr>        <int>     <int> <dbl>   <dbl>   <dbl>
#>  1 Area1  2006 Female        1976    285485  712.    679.    746.
#>  2 Area1  2006 Male          2067    292506  713.    680.    748.
#>  3 Area1  2007 Female        2027    304681  670.    638.    702.
#>  4 Area1  2007 Male          2110    292002  761.    726.    796.
#>  5 Area1  2008 Female        1872    288328  706.    673.    740.
#>  6 Area1  2008 Male          2172    284452  807.    771.    844.
#>  7 Area1  2009 Female        1765    272181  651.    619.    684.
#>  8 Area1  2009 Male          1935    280477  760.    725.    797.
#>  9 Area1  2010 Female        2419    293242  924.    884.    965.
#> 10 Area1  2010 Male          2137    266901  878.    839.    918.
#> # ℹ 30 more rows

# calculate for under 75s by filtering out records for 75+ from input data frame and standard population
df_std %>%
  filter(ageband <= 70) %>%
  mutate(refpop = rep(esp2013[1:15], 40)) %>%
  group_by(area, year, sex) %>%
  calculate_dsr(obs, pop, stdpop = refpop)
#> # A tibble: 40 × 11
#>    area   year sex    total_count total_pop value lowercl uppercl confidence
#>    <chr> <int> <chr>        <int>     <int> <dbl>   <dbl>   <dbl> <chr>     
#>  1 Area1  2006 Female        1613    227232  716.    681.    752. 95%       
#>  2 Area1  2006 Male          1541    222402  722.    685.    760. 95%       
#>  3 Area1  2007 Female        1484    235090  667.    632.    702. 95%       
#>  4 Area1  2007 Male          1688    226660  772.    735.    811. 95%       
#>  5 Area1  2008 Female        1594    231582  714.    679.    751. 95%       
#>  6 Area1  2008 Male          1797    227822  825.    786.    865. 95%       
#>  7 Area1  2009 Female        1361    223702  635.    601.    670. 95%       
#>  8 Area1  2009 Male          1722    216161  806.    767.    846. 95%       
#>  9 Area1  2010 Female        2020    215807  978.    935.   1023. 95%       
#> 10 Area1  2010 Male          1748    201405  891.    849.    934. 95%       
#> # ℹ 30 more rows
#> # ℹ 2 more variables: statistic <chr>, method <chr>
…
Here are some example code chunks to demonstrate the
calculate_ISRatio function and the arguments that can optionally be
specified

# calculate separate smrs for each area, year and sex
# standardised against the all-year, all-sex, all-area reference data
df_std %>%
    group_by(area, year, sex) %>%
    calculate_ISRatio(obs, pop, df_ref$obs, df_ref$pop)
#> # A tibble: 40 × 11
#> # Groups:   area, year, sex [40]
#>    area   year sex    observed expected value lowercl uppercl confidence
#>    <chr> <int> <chr>     <int>    <dbl> <dbl>   <dbl>   <dbl> <chr>     
#>  1 Area1  2006 Female     1976    1921. 1.03    0.984    1.08 95%       
#>  2 Area1  2006 Male       2067    1971. 1.05    1.00     1.09 95%       
#>  3 Area1  2007 Female     2027    2100. 0.965   0.924    1.01 95%       
#>  4 Area1  2007 Male       2110    1984. 1.06    1.02     1.11 95%       
#>  5 Area1  2008 Female     1872    1957. 0.957   0.914    1.00 95%       
#>  6 Area1  2008 Male       2172    1958. 1.11    1.06     1.16 95%       
#>  7 Area1  2009 Female     1765    1848. 0.955   0.911    1.00 95%       
#>  8 Area1  2009 Male       1935    1869. 1.04    0.990    1.08 95%       
#>  9 Area1  2010 Female     2419    2013. 1.20    1.15     1.25 95%       
#> 10 Area1  2010 Male       2137    1799. 1.19    1.14     1.24 95%       
#> # ℹ 30 more rows
#> # ℹ 2 more variables: statistic <chr>, method <chr>

# calculate the same smrs by appending the reference data to the data frame
# and drop metadata columns from output
df_std %>%
    mutate(refobs = rep(df_ref$obs,40),
           refpop = rep(df_ref$pop,40)) %>%
    group_by(area, year, sex) %>%
    calculate_ISRatio(obs, pop, refobs, refpop, refpoptype = "field",
                      type = "standard")
#> # A tibble: 40 × 8
#> # Groups:   area, year, sex [40]
#>    area   year sex    observed expected value lowercl uppercl
#>    <chr> <int> <chr>     <int>    <dbl> <dbl>   <dbl>   <dbl>
#>  1 Area1  2006 Female     1976    1921. 1.03    0.984    1.08
#>  2 Area1  2006 Male       2067    1971. 1.05    1.00     1.09
#>  3 Area1  2007 Female     2027    2100. 0.965   0.924    1.01
#>  4 Area1  2007 Male       2110    1984. 1.06    1.02     1.11
#>  5 Area1  2008 Female     1872    1957. 0.957   0.914    1.00
#>  6 Area1  2008 Male       2172    1958. 1.11    1.06     1.16
#>  7 Area1  2009 Female     1765    1848. 0.955   0.911    1.00
#>  8 Area1  2009 Male       1935    1869. 1.04    0.990    1.08
#>  9 Area1  2010 Female     2419    2013. 1.20    1.15     1.25
#> 10 Area1  2010 Male       2137    1799. 1.19    1.14     1.24
#> # ℹ 30 more rows

The calculate_ISRate function works exactly the same way but instead
of expressing the result as a ratio of the observed and expected rates
the result is expressed as a rate and the reference rate is also
provided. Here are some examples:

# calculate separate indirectly standardised rates for each area, year and sex
# standardised against the all-year, all-sex, all-area reference data
df_std %>%
    group_by(area, year, sex) %>%
    calculate_ISRate(obs, pop, df_ref$obs, df_ref$pop)
#> # A tibble: 40 × 12
#> # Groups:   area, year, sex [40]
#>    area   year sex   observed expected ref_rate value lowercl uppercl confidence
#>    <chr> <int> <chr>    <int>    <dbl>    <dbl> <dbl>   <dbl>   <dbl> <chr>     
#>  1 Area1  2006 Fema…     1976    1921.     671.  690.    660.    721. 95%       
#>  2 Area1  2006 Male      2067    1971.     671.  703.    673.    734. 95%       
#>  3 Area1  2007 Fema…     2027    2100.     671.  647.    619.    676. 95%       
#>  4 Area1  2007 Male      2110    1984.     671.  713.    683.    744. 95%       
#>  5 Area1  2008 Fema…     1872    1957.     671.  641.    613.    671. 95%       
#>  6 Area1  2008 Male      2172    1958.     671.  744.    713.    776. 95%       
#>  7 Area1  2009 Fema…     1765    1848.     671.  640.    611.    671. 95%       
#>  8 Area1  2009 Male      1935    1869.     671.  694.    664.    726. 95%       
#>  9 Area1  2010 Fema…     2419    2013.     671.  806.    774.    839. 95%       
#> 10 Area1  2010 Male      2137    1799.     671.  797.    763.    831. 95%       
#> # ℹ 30 more rows
#> # ℹ 2 more variables: statistic <chr>, method <chr>

# calculate the same indirectly standardised rates by appending the reference data to the data frame
# and drop metadata columns from output
df_std %>%
    mutate(refobs = rep(df_ref$obs,40),
           refpop = rep(df_ref$pop,40)) %>%
    group_by(area, year, sex) %>%
    calculate_ISRate(obs, pop, refobs, refpop, refpoptype = "field",
                     type = "standard")
#> # A tibble: 40 × 9
#> # Groups:   area, year, sex [40]
#>    area   year sex    observed expected ref_rate value lowercl uppercl
#>    <chr> <int> <chr>     <int>    <dbl>    <dbl> <dbl>   <dbl>   <dbl>
#>  1 Area1  2006 Female     1976    1921.     671.  690.    660.    721.
#>  2 Area1  2006 Male       2067    1971.     671.  703.    673.    734.
#>  3 Area1  2007 Female     2027    2100.     671.  647.    619.    676.
#>  4 Area1  2007 Male       2110    1984.     671.  713.    683.    744.
#>  5 Area1  2008 Female     1872    1957.     671.  641.    613.    671.
#>  6 Area1  2008 Male       2172    1958.     671.  744.    713.    776.
#>  7 Area1  2009 Female     1765    1848.     671.  640.    611.    671.
#>  8 Area1  2009 Male       1935    1869.     671.  694.    664.    726.
#>  9 Area1  2010 Female     2419    2013.     671.  806.    774.    839.
#> 10 Area1  2010 Male       2137    1799.     671.  797.    763.    831.
#> # ℹ 30 more rows
